2019 Statistics Tutor R Demo
…
```r
colnames(dirtyIris)
```

```
## [1] "Sepal....Length"  "Sepal.?    Width" "petal.Length(*&^"
## [4] "petal.$^&Width"   "SPECIES^"         "allEmpty"
```

```r
janitor::clean_names(dirtyIris)
```

```
## # A tibble: 650 x 6
##    sepal_length sepal_width petal_length petal_width species    all_empty
##           <dbl>       <dbl>        <dbl>       <dbl> <chr>      <lgl>    
##  1       7.7          3.8          6.7         2.2   virginica  NA       
##  2      -0.184       NA           NA           1.10  setosa     NA       
##  3       7.2          3.6          6.1         2.5   virginica  NA       
##  4       6.3          2.3          4.4         1.3   versicolor NA       
##  5       5.6          2.9          3.6         1.3   versicolor NA       
##  6      NA           -0.906        0.793      NA     setosa     NA       
##  7       0.0187      -0.906        0.793      NA     virginica  NA       
##  8       6.3          2.5          4.9         1.5   versicolor NA       
##  9      NA           NA            1.69       NA     setosa     NA       
## 10      -0.184       -1.46         1.69        0.320 virginica  NA       
## # … with 640 more rows
```
…
